<svg width="24" height="24" viewBox="0 0 24 24" fill="none" xmlns="http://www.w3.org/2000/svg">
<circle cx="12" cy="12" r="11.5" fill="white" stroke="black"/>
<path fill-rule="evenodd" clip-rule="evenodd" d="M13 11V6H11V11H6V13H11V18H13V13H18V11H13Z" fill="black"/>
</svg>
